<?xml version="1.0" encoding="utf-8"?>
<!-- Generator: Adobe Illustrator 24.2.3, SVG Export Plug-In . SVG Version: 6.00 Build 0)  -->
<svg version="1.1" id="Capa_1" xmlns="http://www.w3.org/2000/svg" xmlns:xlink="http://www.w3.org/1999/xlink" x="0px" y="0px"
	 viewBox="0 0 512 512" style="enable-background:new 0 0 512 512;" xml:space="preserve">
<g>
	<g>
		<path d="M467,252.3c2.3,0,4.4-1,5.9-2.8s2-4.1,1.5-6.3l-14.3-63.4c-0.8-3.4-3.8-5.9-7.3-5.9H381c-4.1,0-7.5,3.4-7.5,7.5v63.4v42.5
			c0,4.1,3.4,7.5,7.5,7.5s7.5-3.4,7.5-7.5v-35L467,252.3L467,252.3z M457.7,237.3h-69.2v-48.4h58.3L457.7,237.3z"/>
		<path d="M374.3,362.8c-0.6,2.3-0.8,4.7-0.8,7.1c0,16.6,13.4,30,30,30c16.6,0,30-13.4,30-30c0-16.6-13.4-30-30-30
			c-4.1,0-7.5,3.4-7.5,7.5c0,4.1,3.4,7.5,7.5,7.5c8.3,0,15,6.7,15,15c0,8.3-6.8,15-15,15c-8.2,0-15-6.7-15-15c0-1.2,0.1-2.4,0.4-3.5
			c1-4-1.5-8.1-5.5-9C379.3,356.3,375.3,358.7,374.3,362.8z"/>
		<path d="M126.6,357c-3.5,0-6.5,2.4-7.3,5.7c-0.6,2.3-0.8,4.7-0.8,7.1c0,8,3.1,15.5,8.8,21.2c5.7,5.7,13.2,8.8,21.2,8.8
			c8,0,15.6-3.1,21.2-8.8c5.7-5.7,8.8-13.2,8.8-21.2c0-8-3.1-15.5-8.8-21.2c-5.7-5.7-13.2-8.8-21.2-8.8c-4.1,0-7.5,3.4-7.5,7.5
			c0,4.1,3.4,7.5,7.5,7.5c8.3,0,15,6.8,15,15c0,8.2-6.7,15-15,15c-8.2,0-15-6.8-15-15c0-1.2,0.2-2.4,0.4-3.5c1-4-1.5-8.1-5.5-9
			C127.8,357.1,127.2,357,126.6,357L126.6,357z"/>
		<path d="M7.5,222.9c-4.1,0-7.5,3.4-7.5,7.5s3.4,7.5,7.5,7.5H40v26.9H17.5c-4.1,0-7.5,3.4-7.5,7.5s3.4,7.5,7.5,7.5h23.8
			c1.1,3.1,2.9,6,5.3,8.4c4.2,4.2,9.9,6.6,15.9,6.6h6v60c0,11.7,9,21.4,20.5,22.4c3.7,29.6,29,52.6,59.5,52.6
			c30.5,0,55.8-22.9,59.5-52.5h135.9c3.7,29.6,29,52.5,59.5,52.5s55.8-22.9,59.5-52.5h34c8.3,0,15-6.7,15-15v-15
			c0-5.9-3.5-11.1-8.5-13.5v-69c0-13.8-1.5-27.7-4.6-41.2l-11.4-50.5c-3.9-17.2-18.9-29.3-36.6-29.3h-92.5v-39.2
			c0-6-2.4-11.7-6.6-15.9c-4.2-4.2-9.9-6.6-15.9-6.6H62.5c-6,0-11.7,2.3-15.9,6.6c-2.4,2.4-4.2,5.3-5.3,8.4H7.5
			c-4.1,0-7.5,3.4-7.5,7.5s3.4,7.5,7.5,7.5H40v26.9H17.5c-4.1,0-7.5,3.4-7.5,7.5s3.4,7.5,7.5,7.5H40V181H27.5
			c-4.1,0-7.5,3.4-7.5,7.5s3.4,7.5,7.5,7.5H40v26.9L7.5,222.9L7.5,222.9z M484.3,227c2.8,12.4,4.2,25.1,4.2,37.9v67.5h-38.3
			c-11.4-14.2-28.6-22.5-46.8-22.5c-17.9,0-34,7.9-45,20.4v-42.8c0,0,0-0.1,0-0.1V158.9H451c10.6,0,19.6,7.2,22,17.6L484.3,227
			L484.3,227z M497,362.3h-34c-0.6-5.2-2-10.2-3.9-15H497V362.3z M358.5,369.8c0-24.8,20.2-45,45-45c24.5,0,45,20,45,45
			c0,24.8-20.2,45-45,45C378.6,414.8,358.5,394.7,358.5,369.8z M103.5,369.8c0-24.8,20.2-45,45-45s45,20.2,45,45s-20.2,45-45,45
			C123.7,414.8,103.5,394.7,103.5,369.8z M62.5,279.8c-4.1,0-7.5-3.4-7.5-7.5c0,0,0,0,0,0c0,0,0,0,0-0.1v-41.8c0,0,0,0,0-0.1
			s0,0,0-0.1v-41.8c0,0,0,0,0-0.1s0,0,0-0.1v-41.8c0,0,0,0,0-0.1s0,0,0-0.1v-41.8c0,0,0,0,0-0.1c0,0,0,0,0,0c0-4.1,3.4-7.5,7.5-7.5
			H336c4.1,0,7.5,3.4,7.5,7.5v182.7h0v75H208c-3.7-29.6-29-52.5-59.5-52.5c-30.4,0-55.7,22.8-59.5,52.2c-3.2-0.9-5.5-3.8-5.5-7.2
			v-60H321c4.1,0,7.5-3.4,7.5-7.5c0-4.1-3.4-7.5-7.5-7.5H62.5L62.5,279.8z"/>
	</g>
</g>
</svg>
