<svg xmlns="http://www.w3.org/2000/svg" width="133.512" height="20.96" viewBox="0 0 133.512 20.96">
  <g id="Group_849" data-name="Group 849" transform="translate(0)">
    <path id="Path_2000" data-name="Path 2000" d="M629.543,310.653a2.64,2.64,0,1,0,2.626,2.64,2.635,2.635,0,0,0-2.626-2.64" transform="translate(-498.658 -295.391)" fill="#424242"/>
    <path id="Path_2001" data-name="Path 2001" d="M320.855,271.1a8.4,8.4,0,0,0-.677-3.342,8.781,8.781,0,0,0-1.842-2.75,8.567,8.567,0,0,0-2.735-1.844,8.646,8.646,0,0,0-6.694,0,8.617,8.617,0,0,0-4.609,4.594,8.068,8.068,0,0,0-.423,1.252,8.912,8.912,0,0,0-17.609,2.047c0,.3.016.6.045.9-1.387-1.961-4.145-2.629-5.34-2.93l-.061-.016a9.8,9.8,0,0,1-2.215-.736,1.566,1.566,0,0,1-.934-1.463c.01-1.044.886-1.769,2.349-1.787a2.319,2.319,0,0,1,2.538,1.9l.009.044.025.129h3.983l-.02-.235c-.249-3.577-3.916-4.848-6.356-4.849-4.01,0-6.492,2.479-6.511,4.968l0,.024v.025c.023,3.459,3.238,4.4,5.444,5.057l.371.111a11.22,11.22,0,0,1,2.534.961,1.821,1.821,0,0,1,1.03,1.643c-.018,1.391-1.086,2.289-2.9,2.311a3.1,3.1,0,0,1-3.4-2.934l-.007-.054-.019-.139h-3.566c-.457-3.577-4.585-4.572-6.123-4.961l-.064-.017a9.771,9.771,0,0,1-2.215-.737,1.563,1.563,0,0,1-.932-1.463c.011-1.044.887-1.768,2.349-1.787a2.318,2.318,0,0,1,2.537,1.9l.01.044.025.129h3.981l-.016-.234c-.25-3.579-3.916-4.85-6.355-4.85-4.008,0-6.49,2.475-6.512,4.961v.009l0,.02,0,0v0c.012,3.476,3.234,4.422,5.444,5.078l.371.111a11.277,11.277,0,0,1,2.535.961,1.82,1.82,0,0,1,1.029,1.644c-.018,1.39-1.085,2.289-2.9,2.311a3.1,3.1,0,0,1-3.4-2.934l-.006-.05L262.99,274h-3.544a15,15,0,0,0,.146-2.184V262.5h-3.853v9.283c-.065,3.964-1.6,4.723-3.819,4.786h-.207c-2.214-.063-3.752-.822-3.817-4.788V262.5h-3.852v6.74a8.215,8.215,0,0,0-.474-1.48,8.811,8.811,0,0,0-1.843-2.75,8.577,8.577,0,0,0-2.735-1.844,8.654,8.654,0,0,0-6.695,0,8.625,8.625,0,0,0-4.609,4.594,8.071,8.071,0,0,0-.384,1.109,7.8,7.8,0,0,0-1.084-3.711A7.19,7.19,0,0,0,220,262.047h-.02a6.027,6.027,0,0,0-4.374,1.644v-4.519h-3.852v8.866a9,9,0,1,0-8.536,12.069h.009a8.932,8.932,0,0,0,8.527-5.978v5.562h3.852v-9.342c.035-3.175,1.607-4.728,4.059-4.758A3.275,3.275,0,0,1,223,267.478a6.864,6.864,0,0,1,.486,2.814v9.4h3.852v-6.254a8.107,8.107,0,0,0,.355,1.008,8.582,8.582,0,0,0,1.849,2.729,8.874,8.874,0,0,0,2.76,1.835,8.4,8.4,0,0,0,3.345.674,8.5,8.5,0,0,0,2.41-.34,8.753,8.753,0,0,0,2.17-.984l.181-.115v1.438h3.845V275.56h0v-1.215a6.532,6.532,0,0,0,2.129,4.051,7.581,7.581,0,0,0,5,1.721h.878a7.58,7.58,0,0,0,5-1.721,6.084,6.084,0,0,0,1.9-3.042,5.46,5.46,0,0,0,2.539,3.5,9.275,9.275,0,0,0,4.651,1.278h.006a7.869,7.869,0,0,0,5.135-1.615,5.042,5.042,0,0,0,1.649-2.624,5.52,5.52,0,0,0,2.394,2.961,9.293,9.293,0,0,0,4.654,1.279h0a7.859,7.859,0,0,0,5.134-1.615,5.044,5.044,0,0,0,1.8-3.613,8.9,8.9,0,0,0,8.017,5.2h.007a9.129,9.129,0,0,0,6.019-2.329l.161-.148-.185-.111c-.852-.517-2.013-1.224-2.9-1.774l-.083-.052-.081.054a5.145,5.145,0,0,1-2.818.814,5.272,5.272,0,0,1-5.029-3.773h13.553a8.116,8.116,0,0,0,.513,1.656,8.56,8.56,0,0,0,1.849,2.729,8.839,8.839,0,0,0,2.76,1.835,8.393,8.393,0,0,0,3.344.674,8.5,8.5,0,0,0,2.41-.341,8.717,8.717,0,0,0,2.169-.983l.181-.115v1.438h3.846V275.56h0Zm-109.1,2.425h-4.017l-.095.2.14.07-.14-.069a4.7,4.7,0,0,1-4.424,2.828c-3.369,0-5.068-2.781-5.085-5.5.025-2.39,1.335-5.468,5.146-5.472a4.652,4.652,0,0,1,4.4,2.9l.054.109.043.088h3.982Zm28.612-.445h0a5.088,5.088,0,0,1-2.7,2.7,5.061,5.061,0,0,1-3.938,0,5.093,5.093,0,0,1-2.692-2.715,5.149,5.149,0,0,1,0-3.959,5.1,5.1,0,0,1,2.692-2.717,5.1,5.1,0,0,1,3.954,0,5.088,5.088,0,0,1,2.689,2.714,5.057,5.057,0,0,1,.4,1.992,4.979,4.979,0,0,1-.4,1.982m49.788-3.393a5.089,5.089,0,0,1,5-4.1h.021a5.092,5.092,0,0,1,5,4.1Zm26.821,3.393a5.216,5.216,0,0,1-1.086,1.609,5.148,5.148,0,0,1-1.619,1.09,5.062,5.062,0,0,1-3.939,0,5.14,5.14,0,0,1-1.6-1.091,5.208,5.208,0,0,1-1.088-1.624,5.157,5.157,0,0,1,0-3.96,5.12,5.12,0,0,1,2.692-2.716,5.089,5.089,0,0,1,3.954,0,5.1,5.1,0,0,1,2.689,2.714,5.073,5.073,0,0,1,.4,1.992,5,5,0,0,1-.4,1.982" transform="translate(-194.287 -259.172)" fill="#424242"/>
  </g>
</svg>
