<svg xmlns="http://www.w3.org/2000/svg" width="103.533" height="59.715" viewBox="0 0 103.533 59.715">
  <g id="brands-leecooper-red-triangle" transform="translate(0)">
    <path id="Path_97" data-name="Path 97" d="M247.533,167.815l-51.76,29.81c-5.775-3.407-35.191-20.2-51.773-29.81,0,0,49.414-28.466,51.788-29.9Z" transform="translate(-144 -137.91)" fill="#424242"/>
    <path id="Path_98" data-name="Path 98" d="M285.244,253.463a2.079,2.079,0,0,1-2.22.693c-.886-.159-.852-1.138-.852-1.5s.346-.284.882-.5,1.176-1.585,1.811-3.106a8.6,8.6,0,0,0,.665-3.136,1.719,1.719,0,0,0-1.366-1.841c-1.269-.381-1.613.224-1.869.572a14.2,14.2,0,0,0-1.458,3.71A7.724,7.724,0,0,1,279.251,252c-.634.759-1.271,1.08-1.5.761a6.615,6.615,0,0,1-.159-2.093c0-.318.475-.413.856-.6a5.494,5.494,0,0,0,1.5-2.032,14.166,14.166,0,0,0,1.5-4.123c.187-1.237-.316-1.71-1.394-2.185s-1.617.221-2.056.886a18.711,18.711,0,0,0-2,5.2,12.5,12.5,0,0,0,0,5.678c.254.7.1.725-.226.692s-1.263-.123-1.7-.187-.54-.159-.574-.32.574-3.263.981-5.607,1.013-7.164,1.133-8.56.314-1.551.6-1.869-.1-1.308-.948-1.48a7.584,7.584,0,0,0-5.168.531c-1.555.611-1.078,1.551-.725,2.09a39.351,39.351,0,0,0-1.338,6.119,37.056,37.056,0,0,0-.374,8.224,16.6,16.6,0,0,0-.064,2.179c.161,1.891.888,2.056,1.682,2.286,2.755.662,3.486-.32,3.678-.634,0,0,4.217.25,6.626.29s2.441-.29,2.693-.48.254-.826.348-.888.794-.252,1.2-.374c1.553-.443,2.056-1.112,2.254-1.714s-.665-.45-.822-.316m-2.4-5.835c.15-.3.488-1.082.488-1.082.187-.187.561-.3.538.293a6.607,6.607,0,0,1-.964,2.839c-.125.148-.443.443-.533.021a5.754,5.754,0,0,1,.471-2.071m-4.525-1.192c.25-.748.492-1.308.492-1.308.168-.387.7-.725.663-.241a5.318,5.318,0,0,1-.536,1.777c-.279.514-.258.854-.77.957-.127-.021-.107-.443.151-1.192m.835,7.96a5.416,5.416,0,0,0,1.452-1.529,1.792,1.792,0,0,0,.785,1.725Z" transform="translate(-244.461 -217.626)" fill="#fff"/>
    <path id="Path_99" data-name="Path 99" d="M420.2,255.96c-.065-.187-.237-.342-1.155.06s-2.219.9-3.177.411a3.241,3.241,0,0,1-1.832-2.118,21.621,21.621,0,0,1-.471-5.656c-.021-.32-.041-.561-.574-.809-.133-.065-.187-.344.17-.471s.807-.875-.17-.959a3.571,3.571,0,0,0-1.391.428c-.318.213-.576.469-.617,1.94a21.084,21.084,0,0,1-.748,5.549c-.6,1.877-.807,2.583-1.983,2.542-.3-.064-1.045-.621-.873-2.5.789-.269,1.708-.83,2.391-2.9s.9-4.525.465-5.312c-.187-.406-.23-.813-1.047-.578a3.75,3.75,0,0,0-2.056,2.032,20.991,20.991,0,0,0-1.149,4.3s-.129-.022-.082-.407a10.874,10.874,0,0,0-.645-4.886,1.611,1.611,0,0,0-1.621-.873c-.129,0-.129-.344-.041-.68s.469-1.454-.26-1.671a1.441,1.441,0,0,0-1.682.26,17.973,17.973,0,0,0-.6,2.71,6.7,6.7,0,0,1-.34,1.9c-.211.234-.241.3-.512.364-.217-.4-.153-1.434-.766-1.985a1.688,1.688,0,0,0-1.815-.133,10.026,10.026,0,0,0-1.263,1.731,1.817,1.817,0,0,1-1.192.682c-.621.019-.9.108-1.217-.336s-.621-1.045-1.391-.791a5.367,5.367,0,0,0-2.43,2.948,11.213,11.213,0,0,0-.979,4.8c0,.127.15.26.017.407A3.2,3.2,0,0,1,386.991,257c-1.428-.047-2.327-1.133-2.368-3.63a31.188,31.188,0,0,1,.9-7.383c.533-2.3,1.346-3.3,1.587-3.389.428,0,.673.456.766,1.187a13.677,13.677,0,0,1,0,3.738c-.247,1.763-.394,2.521.239,2.768s1.432-.4,1.92-2.041a12.2,12.2,0,0,0,.669-6.026c-.428-2.555-1.189-2.678-1.37-2.828a4.528,4.528,0,0,0-1.888-.484c-.7,0-2.037-.123-2.5-.157a5.831,5.831,0,0,0-.88-.088,1.387,1.387,0,0,0-1,.729,27.052,27.052,0,0,0-2.919,6.616,25.332,25.332,0,0,0-1.342,6.944,5.565,5.565,0,0,0,2.553,5.385,5.791,5.791,0,0,0,5.233.4,20.532,20.532,0,0,0,2.8-1.308c.215.374.935,1.555,1.974,1.5s2.51-1.245,2.953-4.749c.4-3.149.125-3.772.093-4.047.265.017.916.08,1.1.092a17.4,17.4,0,0,0-.964,4.86c-.03,2.144.471,3.1,1.131,3.564a1.687,1.687,0,0,0,2.5-.273,9.666,9.666,0,0,0,1.682-4.02,20.217,20.217,0,0,0,.413-3.987,2.159,2.159,0,0,1,.318-.107s-.374,4.4-.426,5.886-.108,6.151-.024,6.831.26,1.217,1.028,1.121.873-.7.854-1.751a23.1,23.1,0,0,1,.125-3.964,5.518,5.518,0,0,0,1.794-.935,6.923,6.923,0,0,0,1.792-3.97s.086.041.086.406a8.884,8.884,0,0,0,.374,2.856,2.2,2.2,0,0,0,3.033,1.28c1.725-.684,2.366-4.1,2.729-6.317.022-.107.187-.125.262.578s.293,4.181,2.323,5.377a4.441,4.441,0,0,0,3.669.363c1.613-.619,2.43-1.174,1.987-2.047M408.513,248.8c.407-.551.66-.424.66.278a5.5,5.5,0,0,1-.916,2.837c-.493.447-.68.067-.68-.338a9.1,9.1,0,0,1,.935-2.777m-15.534,5.1c-.473,1.86-.77,2.243-1.088,2.261s-.43-.258-.449-.682a10.023,10.023,0,0,1,1.387-5.035c.17-.235.3-.235.4-.168.364.3.211,1.768-.254,3.624m5.246.561c-.613,2.086-1.065,2.262-1.321,2.176s-.32-.957-.15-2.581a18.9,18.9,0,0,1,1.432-4.718c.51-.721.723-.422.766.391a15.756,15.756,0,0,1-.727,4.732m5.785-2.9a16.8,16.8,0,0,1-.828,4.08c-.258.665-.665.529-.748.211a22.334,22.334,0,0,1-.045-3.633,18.226,18.226,0,0,1,.854-4.237c.211-.406.492-.323.66-.067a10.576,10.576,0,0,1,.107,3.647" transform="translate(-334.909 -219.829)" fill="#fff"/>
    <path id="Path_100" data-name="Path 100" d="M574.525,280.13a1.682,1.682,0,1,1-1.665,1.671,1.647,1.647,0,0,1,1.665-1.671Zm0,.256a1.417,1.417,0,0,0,0,2.83,1.361,1.361,0,0,0,1.336-1.409A1.38,1.38,0,0,0,574.525,280.386Zm-.31,2.383h-.3V280.9a3.5,3.5,0,0,1,.523-.045.961.961,0,0,1,.581.144.441.441,0,0,1,.17.383.473.473,0,0,1-.374.456v.015c.164.028.277.176.312.447a1.658,1.658,0,0,0,.12.462h-.31a1.3,1.3,0,0,1-.127-.471.348.348,0,0,0-.4-.327h-.209Zm0-1.028h.215c.247,0,.452-.09.452-.322,0-.161-.116-.322-.452-.322a1.231,1.231,0,0,0-.215.013Z" transform="translate(-492.703 -253.548)" fill="#fff"/>
    <path id="Path_101" data-name="Path 101" d="M342.678,365.372a1.378,1.378,0,0,1-.918-.346l.282-.336a.989.989,0,0,0,.645.262c.187,0,.312-.077.312-.2h0c0-.122-.075-.187-.436-.275-.436-.112-.718-.232-.718-.664h0a.674.674,0,0,1,.748-.65,1.252,1.252,0,0,1,.8.275l-.247.359a1.016,1.016,0,0,0-.561-.213c-.187,0-.279.082-.279.187h0c0,.142.093.187.467.284.439.114.686.271.686.649h0c0,.43-.327.671-.794.671" transform="translate(-304.798 -321.059)" fill="#fff"/>
    <rect id="Rectangle_224" data-name="Rectangle 224" width="0.477" height="2.163" transform="translate(39.975 42.119)" fill="#fff"/>
    <path id="Path_102" data-name="Path 102" d="M225.168,227.534l-1.049-1.376v1.376h-.469V225.37h.439L225.1,226.7V225.37h.469v2.164Z" transform="translate(-181.856 -183.253)" fill="#fff"/>
    <path id="Path_103" data-name="Path 103" d="M385.227,365.238a1.092,1.092,0,0,1-1.108-1.121h0a1.1,1.1,0,0,1,1.121-1.121,1.121,1.121,0,0,1,.852.335l-.3.35a.8.8,0,0,0-.551-.245.641.641,0,0,0-.628.675h0a.641.641,0,0,0,.628.678.77.77,0,0,0,.561-.252l.316.329a1.106,1.106,0,0,1-.888.389" transform="translate(-339.238 -320.924)" fill="#fff"/>
    <path id="Path_104" data-name="Path 104" d="M257.49,227.534V225.37h1.634v.424h-1.161v.439h1.021v.422h-1.021v.454h1.176v.424Z" transform="translate(-209.371 -183.253)" fill="#fff"/>
    <path id="Path_105" data-name="Path 105" d="M279.432,225.29h.323v2.179h-.469v-1.7l-.378.093-.1-.391Z" transform="translate(-226.706 -183.188)" fill="#fff"/>
    <path id="Path_106" data-name="Path 106" d="M435,365.256a1.05,1.05,0,0,1-.712-.258l.25-.361a.712.712,0,0,0,.473.187c.265,0,.409-.2.439-.492a.658.658,0,0,1-.439.149.685.685,0,0,1-.772-.7.764.764,0,0,1,.826-.761.783.783,0,0,1,.622.236,1.076,1.076,0,0,1,.256.82c0,.7-.331,1.183-.944,1.183m.08-1.83a.325.325,0,0,0-.374.329.333.333,0,0,0,.374.329.327.327,0,0,0,.374-.325.336.336,0,0,0-.374-.333" transform="translate(-379.993 -320.943)" fill="#fff"/>
    <path id="Path_107" data-name="Path 107" d="M450.077,365.243a1.135,1.135,0,1,1,.964-1.121,1.008,1.008,0,0,1-.964,1.121m0-1.809c-.288,0-.469.288-.469.686s.187.693.475.693.471-.292.471-.686-.187-.693-.477-.693" transform="translate(-392.091 -320.929)" fill="#fff"/>
    <path id="Path_108" data-name="Path 108" d="M466.16,365.324c-.48,0-.834-.249-.834-.628a.529.529,0,0,1,.348-.525.514.514,0,0,1-.275-.477c0-.333.3-.594.761-.594s.761.262.761.594a.512.512,0,0,1-.277.477.536.536,0,0,1,.35.514c0,.4-.355.639-.834.639m0-.935c-.217,0-.374.1-.374.267s.138.273.374.273.374-.118.374-.273-.159-.267-.374-.267m0-.9a.278.278,0,0,0-.31.252.316.316,0,1,0,.31-.252" transform="translate(-405.268 -321.011)" fill="#fff"/>
  </g>
</svg>
